{
  "data": [
    {
      "id": 2,
      "nombre": "Alberto Emilio Fiallo Scanlón",
      "ocupacion": "Docente",
      "foto": "alberto-fiallo-500x500.jpg",
      "sobreMi": "Abogado egresado con honores de la PUCMM. Posee maestría en Derecho Empresarial y Legislación económica en PUCMM [2000-2002]. Maestría en Derecho Internacional Público en la Universidad de Bristol, Inglaterra la cual realizó con los auspicios de la Beca Chevening otorgada por el Gobierno Británico [2002-2004]. Posee también Maestría en Derecho Constitucional en UNIBE [2007-2009] y una Maestría en Derecho Administrativo de la Universidad de Castilla La Mancha en España. Fiallo está estudiando un PHD en Derecho Constitucional.\nHa impartido docencia de derecho comparado, derecho internacional público y Derecho Constitucional en la ENJ, UASD, EFEC, UNIBE y PUCMM. Exconsultor jurídico de la Dirección General de Impuestos Internos. Exconsultor Jurídico de la Dirección General de Impuestos Internos, actualmente se desempaña como Socio Gerente de la Firma de abogados Fiallo-Billini Scanlon Abogados y Consultores."
    },
    {
      "id": 3,
      "nombre": "Amaury Yoryi Oviedo Liranzo",
      "ocupacion": "Docente",
      "foto": "amauri-oviedo-500x500.jpg",
      "sobreMi": "Es Licenciado en Derecho por la Universidad Autónoma de Santo Domingo (UASD, 2013). Realizó el Programa de Formación de Aspirantes a Defensores Públicos en la Escuela Nacional de la Judicatura (ENJ, 2015-2016). Posee un Magíster en Derecho Penal y Derecho Procesal Penal Contemporáneo (Universidad Abierta para Adultos, UAPA 2020), Especialidad en Derecho Administrativo Sancionador (Universidad de Valladolid 2021).\nFue Defensor Público del Distrito durante los años 2016 al 2019. Ha sido docente en los Diplomado Técnicas Avanzadas de Litigación Penal, Diplomado Especializado en Recursos en Materia Penal, Diplomado en Derecho Procesal Penal Avanzado y Ley 155-17 Lavado de Activos, Terrorismo y Blanqueo del Colegio de Abogados de la República Dominicana, Curso Derecho Penal y Procesal Penal Contemporáneo, Taller Manejo de la Ley 631-16 sobre el Control y Regulación de Armas, para el Colegio de Abogados de la República Dominicana (CARD), entre otros. Así como, Docente en el diplomado “Destrezas para el Abordaje Estratégico de las Vistas en la Fase Preparatoria del Proceso Penal” de la Universidad Félix Adam (UNEFA).\nActualmente se desempeña como Inspector Judicial Litigante de la Inspectoría General del Consejo del Poder Judicial."
    },
    {
      "id": 4,
      "nombre": "Ana Magnolia Méndez",
      "honorifico": "Mgda",
      "ocupacion": "Docente",
      "foto": "ana-magnolia-mendez-500x500.jpg"
    },
    {
      "id": 5,
      "nombre": "Ángel Julian Serulle Joa",
      "ocupacion": "Docente",
      "foto": "angel-julian-serulle-joa-500x500.jpg"
    },
    {
      "id": 6,
      "nombre": "Arelis Ricourt",
      "honorifico": "Mgda",
      "ocupacion": "Docente",
      "foto": "arelis-ricourt-500x500.jpg"
    },
    {
      "id": 7,
      "nombre": "Armando Andruet",
      "ocupacion": "Docente",
      "foto": "armando-andruet-500x500.jpg",
      "sobreMi": "Exjuez presidente de la Sala Civil y Comercial del Tribunal Superior de Justicia de la Provincia de Córdoba (Argentina). Doctor en Derecho. Miembro de número de la Academia Nacional de Derecho y Ciencias Sociales de Córdoba.\nEs Profesor Titular de Filosofía del Derecho, director de la Especialización en Derecho Judicial y de la Judicatura por la Universidad Católica de Córdoba, director de la Maestría en Bioética en la Universidad Nacional de Córdoba, director del Centro de Perfeccionamiento ‘Ricardo C. Núñez’ del Poder Judicial de la Provincia de Córdoba, Profesor de Ética Médica y Bioética. Ensayista sobre temas de Razonamiento y Argumentación Forense, Ética Judicial, Justicia y Política. Es autor de una decena de libros propios, entre ellos los siguientes títulos: Deontología del derecho – Abogacía y abogados- Estado actual de la cuestión, 2000; Ejercicio de la abogacía y deontología del derecho, 2000; Teoría general de la argumentación forense, 2001; Bioética, derecho y sociedad – Conflicto, ciencia y convivencia, 2004; Códigos de ética judicial – Discusión, realización y perspectiva, 2008."
    },
    {
      "id": 8,
      "nombre": "Carmen Luisa Martínez",
      "ocupacion": "Docente",
      "foto": "carmen-luisa-martinez-500x500.jpg",
      "sobreMi": "Es Licenciada en Derecho Magna Cum Laude egresada de la PUCMM. Posee Maestría en Derecho de las Obligaciones de la Universite de Savoie et Chambery, Maestría en Derecho de las Obligaciones de la PUCMM. Actualmente se desempeña como Coordinadora General de Ciencias Jurídicas de Postgrado PUCMM y miembro del Comité Jurídico."
    },
    {
      "id": 9,
      "nombre": "Claudia Salas Rodríguez",
      "ocupacion": "Docente",
      "foto": "claudia-salas-500x500.jpg",
      "sobreMi": "Licenciada en Negocios Internacionales, egresada de Berkeley College Woodbridge, NJ., Estados Unidos. Ha participado en los Diplomados de Archivística General (Escuela Nacional de la Judicatura), diplomado en Registro Inmobiliario Ley 108-05 (Universidad La Católica) y diplomado en Legislación de Tierras (Funjepro).\nActualmente es Gerente de Proyectos de Archivo del Registro Inmobiliario."
    },
    {
      "id": 10,
      "nombre": "Claudio Aníbal Medrano",
      "honorifico": "Mgdo",
      "ocupacion": "Docente",
      "foto": "claudio-a-medrano-500x500.jpg",
      "sobreMi": "Juez presidente de la Cámara Penal de la Corte de Apelación de San Francisco de Macorís. Magister en Justicia Constitucional de la Universidad de Costa Rica, 2009. Magister en Docencia Universitaria de la Universidad Católica Nordestana, 2007. Especialista en Derecho Judicial de la Escuela Nacional de la Judicatura, 2006. Diplomado en Derechos Humanos de la Universidad Nacional Pedro Henríquez Ureña, Instituto de los Derechos Humanos Santo Domingo & Instituto Militar de los Derechos Humanos, 2001. Licenciatura en Derecho de la Universidad Católica Nordestana, 1987."
    },
    {
      "id": 11,
      "nombre": "Cristian Jesús Cabrera Heredia",
      "ocupacion": "Docente",
      "foto": "cristian-cabrera-heredia-500x500.jpg",
      "sobreMi": "Es Licenciado en Derecho, egresado de la Universidad Autónoma de Santo Domingo. Maestría en Administración de Justicia Penal de la Escuela Nacional de la Judicatura. Es además egresado del Programa de Formación de Aspirantes a Investigador Judicial y Defensor/a Público, en los años 2005 y 2007, respectivamente.\nRealizó un Diplomado Internacional en Argumentación Jurídica e Interpretación Constitucional, impartido por la CEDAL y la Universidad Católica de Santo Domingo. En la Escuela Nacional de la Judicatura, ha realizado los cursos siguientes: Derecho Procesal Constitucional, Interpretación Constitucional, Garantías Constitucionales, El Juicio Penal, Ciencias Forenses, entre otros. Se desempeñó como Investigado Judicial, Defensor Público, Coordinador Distrital y Departamental de la Oficina Nacional de la Defensa Pública. Actualmente es abogado en ejercicio para la firma Díaz-Trueba."
    },
    {
      "id": 12,
      "nombre": "Cristian Alberto Martínez Carrasco",
      "ocupacion": "Docente",
      "foto": "cristian-martinez-500x500.jpg",
      "sobreMi": "Es Licenciado en derecho, Magna cum laude Universidad Autónoma de Santo Domingo; posee Maestría en derecho civil (DSU), Mención Bien: Université Panthéon Assas; ha realizado el Diplomado Prácticas Judiciales en Materia civil y Comercial en UNIBE y Diplomado en responsabilidad civil en la UASD. Actualmente se desempeña como Socio director en Martínez Servicios Jurídicos, SRL."
    },
    {
      "id": 13,
      "nombre": "Danilo Caraballo",
      "ocupacion": "Docente",
      "foto": "danilo-caraballo-500x500.jpg"
    },
    {
      "id": 14,
      "nombre": "Darío Gómez Herrera",
      "honorifico": "Mgdo",
      "ocupacion": "Docente",
      "foto": "dario-gomez-herrera-500x500.jpg"
    },
    {
      "id": 15,
      "nombre": "Denise Posse Lindberg",
      "honorifico": "Mgda",
      "ocupacion": "Docente",
      "foto": "denise-lindberg-500x500.jpg",
      "sobreMi": "Es Becaria Superior, Centro Internacional de Estudios de Derecho y Religión, Universidad Brigham Young, Ciudad de Provo, Estado de Utah (2015-actualidad). Jueza Superior, Poder Judicial del Estado de Utah, Ciudad de Lago Salado (2015-19). En cuanto a su experiencia docente: Fue instructora adjunto, Programa Ejecutivo del Máster en Administración Pública (MPA por sus siglas en inglés) de la Universidad de Utah, Ciudad de Lago Salado, Utah (2001). Enseñó un curso sobre derecho constitucional estadounidense; Becaria Docente, la Facultad de Salud, Universidad de Utah, Ciudad de Lago Salado, Utah (1976-78).\nActualmente se desempeña como Jueza Superior (Decana) Jueza, Tribunal de primera instancia, Tercer Distrito Judicial, Estado de Utah, EEUU."
    },
    {
      "id": 16,
      "nombre": "Desirée Barinas",
      "ocupacion": "Docente",
      "foto": "desiree-barinas-500x500.jpg",
      "sobreMi": "Doctora en Derecho Egresada de UNIBE. Posee Máster en Sociedad Democrática y Estado de Derecho de la Universidad del País Vasco-UASD; Especialidad en Derechos Humanos y Gobernación. Actualmente se desempeña como Coordinadora-consultora en Consejo del Poder Judicial."
    },
    {
      "id": 17,
      "nombre": "Edynson Alarcón",
      "honorifico": "Mgdo",
      "ocupacion": "Docente",
      "foto": "edynson-alarcon-500x500.jpg",
      "sobreMi": "Es Licenciado en Derecho de la UCE. Posee Maestría en Propiedad Intelectual de la Universidad Carlos III de Madrid, mención de honor en grado sobresaliente. Especialista en Derecho Mercantil por la Escuela Judicial de Barcelona. Profesor de Derecho Procesal Civil en la Universidad Iberoamericana (UNIBE), en la Universidad Central del Este (UCE) y en las maestrías de Procedimiento Civil, Práctica Legal, Responsabilidad Civil y Propiedad Intelectual de la Pontificia Universidad Católica, Madre y Maestra (PUCMM); y coordinador del área de Privado y Administrativo en la Escuela Nacional de la Judicatura (ENJ).\nActualmente se desempeña Juez Presidente de la Primera Sala de la Cámara Civil y Comercial de la Corte de Apelación del D.N."
    },
    {
      "id": 18,
      "nombre": "Elizabeth Del Rosario Rodríguez Diaz",
      "ocupacion": "Docente",
      "foto": "elizabeth-del-rosario-rodriguez-diaz-500x500.jpg",
      "sobreMi": "Licenciada en Derecho graduada en la Universidad Católica Tecnológica del Cibao, UCATECI, La Vega, 1992-1997. Posee un Magister en Derecho Constitucional y Derecho Público, por la Universidad Castilla la Mancha, España, Postgrado Derecho Constitucional.\nEgresada de la Universidad de Chile, en la facultad de derechos humanos donde participó en el Postítulo ¨La Responsabilidad Internacional de los Estados y las Reparaciones ante la Corte Interamericana de Derechos Humanos”. Formó parte del Segundo Programa de Capacitación en Sistema Interamericano para Defensores Públicos Oficiales de América, con el auspicio de la Corte Interamericana de Derechos Humanos y la Asociación Interamericana de Defensorías Públicas, celebrado en la ciudad de México.\nComo defensora interamericana participó en Segundo Taller de Trabajo de Defensores Interamericanos: Primeros casos conocidos por la Corte Interamericana. Como disertante cabe destacar su participación en el Primer Congreso Nacional de Defensa Pública, Santo Domingo, participación como disertante con el tema “La Problemática de las Cárceles Dominicanas y la presentación de la Comisión de Cárceles”."
    },
    {
      "id": 19,
      "nombre": "Emilio Aquino Jiménez",
      "ocupacion": "Docente",
      "foto": "emilio-aquino-500x500.jpg",
      "sobreMi": "Licenciado en Derecho, egresado de la Universidad Autónoma de Santo Domingo. Realizó una maestría en Derecho Constitucional de la Universidad Autónoma de Santo Domingo (UASD). Ha participado en los cursos Técnicas de Litigación I y II (2009), Etapa Intermedia, Audiencia Preliminar y Juicio (2010), Mecanismo de Solución de Conflictos en el Proceso Penal (2010), Derecho Constitucional (2010) en la Escuela Nacional de la Judicatura.\nActualmente ejerce como Abogado Privado y Docente en la Universidad Pedro Enríquez Ureña (UNPHU)."
    },
    {
      "id": 20,
      "nombre": "Enmanuel Montás",
      "ocupacion": "Docente",
      "foto": "enmanuel-montas-500x500.jpg"
    },
    {
      "id": 21,
      "nombre": "Esthel Díaz Díaz",
      "ocupacion": "Docente",
      "foto": "esthel-diaz-500x500.jpg",
      "sobreMi": "Doctora en Derecho, egresada de la Universidad Autónoma de Santo Domingo en el año 1984; Magíster en Ciencias Jurídicas, universidad Católica Madre y Maestra, Santiago de los Caballeros, 1988; certificada por el Instituto Tecnológico de Santo Domingo en Técnicas en la Preparación de Libros de Texto, Santo Domingo, 1993; Diplomado en Pedagogía Universitaria, Pontificia Universidad Madre y Maestra, Santo Domingo, 2007; Postgrado de Especialización en Constitucionalismo y Garantismo por la Universidad Castilla La Mancha, Madrid, 2009; curso de Mujeres y el Derecho Internacional de los Derechos Humanos en la Academia de Derechos Humanos y Derecho Internacional Humanitario Diplomado y Programa Especializado 2009. Washington, 2009: Postgrado de Especialización en Justicia Constitucional y Proceso de Amparo por la Universidad Castilla La Mancha, Madrid 2010.\nAsí mismo, es docente universitaria en la Pontificia Universidad Católica Madre y Maestra, recinto Santo Domingo, para las asignaturas Teoría General de las Obligaciones y Responsabilidad Civil y en la Universidad Autónoma de Santo Domingo, para las asignaturas Lógica Jurídica y Teoría General de las Obligaciones."
    },
    {
      "id": 22,
      "nombre": "Florilena Paredes",
      "ocupacion": "Docente",
      "foto": "florilena-paredes-500x500.jpg",
      "sobreMi": "Doctoranda del Doctorado en Estudios del Español: Lingüística y Literatura, Pontificia Universidad Católica Madre y Maestra (PUCMM) Máster en Lingüística Aplicada, Universidad Alcalá de Henares. Es docente en la PUCMM y en el Instituto de Formación Docente Salomé Ureña en los niveles de grado y posgrado.\nDirectora de la revista indexada de la PUCMM “Cuaderno de Pedagogía Universitaria”."
    },
    {
      "id": 23,
      "nombre": "Guillermo Gerónimo Camilo",
      "ocupacion": "Docente",
      "foto": "guillermo-geronimo-500x500.jpg",
      "sobreMi": "Licenciado en Derecho egresado de la UASD, actualmente se desempeña como Coordinador del departamento de control de servicio en la Oficina Nacional de la Defensa Pública. Maestría en Derecho Civil y Procesal Civil en la UASD. Especialidad de los Derechos de los NNA ENJ."
    },
    {
      "id": 24,
      "nombre": "Gustavo Fariña",
      "ocupacion": "Docente",
      "foto": "gustavo-fariña-500x500.jpg"
    },
    {
      "id": 25,
      "nombre": "Hermógenes Acosta",
      "ocupacion": "Docente",
      "foto": "hermogenes-acosta-500x500.jpg",
      "sobreMi": "Doctor en Derecho por la Universidad Autónoma de Santo Domingo, posee Maestría en Derecho Empresarial y Legislación Económica (PUCMM), Maestría en Derecho Privado Francés Europeo e Internacional de la Universidad Panteón Asas, Paris II, Francia, Maestría en Derecho Constitucional y Justicia Constitucional, Universidad Castilla La Mancha, recinto Toledo, España y Universidad Estatal de Costa Rica, (doble titulación). Maestría en Derecho Administrativo del Estado, Universidad de Salamanca, España. Ejerció la profesión de abogados desde julio 1989 hasta diciembre 1998. En diciembre de 1998 ingresó al Poder Judicial como juez de la Cámara Civil y Comercial de la Corte de Apelación de Santo Domingo, promovido posteriormente a segundo sustituto del presidente de dicha Corte.\nEn 2005 fue designado presidente de la Segunda Sala de la Cámara Civil y Comercial del Distrito Nacional. En diciembre de 2011 el Consejo Nacional de la Magistratura lo designa juez del Tribunal Constitucional, función que ocupó hasta el 26 de enero 2021. Profesor de Derecho Procesal civil de la Pontificia Universidad Católica Madre y Maestra (PUCMM) y de la Universidad Iberoamericana (UNIBE), de Derecho Tributario de la Universidad Nacional Pedro Henríquez Ureña, de Derecho Procesal Constitucional y Derecho Constitucional en la Escuela Nacional de la Judicatura (ENJ) y el Instituto Global de Altos Estudios en Ciencias Sociales (IGLOBAL)."
    },
    {
      "id": 26,
      "nombre": "Ismael Nehemías Ramírez Santana",
      "honorifico": "Mgdo",
      "ocupacion": "Docente",
      "foto": "ismael-ramirez-500x500.jpg",
      "sobreMi": "Juez sustituto del tribunal del tribunal colegiado de primera instancia del Distrito Judicial de La Romana. Es Magister Profesionalizante en Derecho Procesal Penal (UASD); Master en Redacción Expositiva y Argumentativa de las Decisiones Judiciales (Universidad de Jaén, España); Master en Derecho de Justicia Constitucional y Derecho Público (Universidad Castilla La Mancha, España.\nRealizó el Diplomado Centroamericano sobre Reformas Procesal Penal (CEJAMERICAS, Guatemala, Costa Rica y Chile), Diplomado en Teoría del Delito y Proceso Acusatorio (CESJUL), Bogotá Colombia. Ha realizado los cursos Etapa Inicial, Principios y Garantías del proceso penal, Derecho Constitucional, Derecho Ambiental y Derecho Penal Especial en la Escuela Nacional de la Judicatura."
    },
    {
      "id": 27,
      "nombre": "Iván Rafael Clement Aracena",
      "ocupacion": "Docente",
      "foto": "ivan-clement-500x500.jpg",
      "sobreMi": "Ingeniero de Sistemas y Computación de la Universidad Dominicana O & M. Analista de Infraestructura de TIC en la Dirección de Tecnología del Poder Judicial. Profesional de la carrera Ingeniería en Sistemas y Computación, especializado en el área de Infraestructura de TI con más de 5 años de experiencia y amplios conocimientos en la recuperación ante desastres y virtualización tanto en VMware como Hyper-V."
    },
    {
      "id": 28,
      "nombre": "John Henry Reynoso",
      "ocupacion": "Docente",
      "foto": "john-henry-reynoso-500x500.jpg"
    },
    {
      "id": 29,
      "nombre": "Jorge Jiménez Martín",
      "honorifico": "Mgdo",
      "ocupacion": "Docente",
      "foto": "jorge-jimenez-martin-500x500.jpg",
      "sobreMi": "Licenciado en Derecho, egresado de la Universidad de Costa Rica (1993), tiene una Especialidad en Derecho Administrativo por la Universidad de Salamanca (2002) y un Doctorado en Derecho Constitucional por la Universidad de Sao Paulo, Brasil (2000). Se desempeña como Director Jurídico de la Presidencia de la República de Costa Rica desde el año 2014.\nFue director de la Escuela Judicial de Costa Rica y Letrado de la Sala Constitucional. Tiene 20 años impartiendo las asignaturas Derecho Público y Derecho Constitucional I, II y III en la Universidad de Costa Rica."
    },
    {
      "id": 30,
      "nombre": "José Altagracia Fis Batista",
      "ocupacion": "Docente",
      "foto": "jose-fis-500x500.jpg",
      "sobreMi": "Licenciado en Derecho, egresado de la Universidad Autónoma de Santo Domingo (UASD). Posee un Postgrado en Derecho Penal, (UASD); Postgrado en Derecho Constitucional, Universidad Castilla La Mancha, España; Maestría en Derecho Constitucional y Derecho Público, Universidad Castilla La Mancha, España; Diplomado en Derecho Procesal Penal, (CONAEJ). Es egresado del Programa de Formación de Aspirantes para Defensores Públicos de la Escuela Nacional de la Judicatura.\nActualmente se desempeña como abogado independiente. Diplomado en Derecho civil, Laboral, Administración Pública. Curso de Derecho Administrativo en La Universidad de Puerto Rico. Maestría en Relaciones de Derechos y Relaciones Internacionales."
    },
    {
      "id": 31,
      "nombre": "José Luis Ugarte",
      "ocupacion": "Docente",
      "foto": "jose-luis-ugarte-500x500.jpg"
    },
    {
      "id": 32,
      "nombre": "José Manuel Méndez Cabrera",
      "honorifico": "Mgdo",
      "ocupacion": "Docente",
      "foto": "jose-manuel-mendez-cabrera-500x500.jpg",
      "sobreMi": "Juez de Corte del Tribunal Superior de Tierras del Departamento del Este. Es Licenciado en Derecho por la Universidad Central del Este, 2003 Magna Cum Laude; egresado del Programa de Formación de Aspirante a Juez de Paz de la Escuela Nacional de la Judicatura (2009). Tiene una Maestría en Derecho Empresarial y Legislación Económica. Ha realizado cursos sobre vías de ejecución, Colegio de Abogados (2002); Derecho Internacional Humanitario para docentes universitarios, Universidad Iberoamericana y Comité Internacional Geneva (2002).\nHa fungido como Juez de Paz Especial de Tránsito, La Romana (2009-2010); Juez de Paz Municipio La Romana (2010- 2011); actualmente es docente en la Facultad de Derecho de la Universidad Central del Este."
    },
    {
      "id": 33,
      "nombre": "Juan Biaggi",
      "honorifico": "Mgdo",
      "ocupacion": "Docente",
      "foto": "juan-biaggi-500x500.jpg",
      "sobreMi": "Juez Primer Sustituto de la Cámara Civil y Comercial de la Corte de Apelación de San Cristóbal. Ha impartido docencia por más de 25 años en UNIBE, INTEC, Universidad Pedro Henríquez Ureña y Pontificia Católica Madre y Maestra. Ha sido columnista y editor turístico y vicepresidente de la Asociación Dominicana de escritores y periodistas de turismo y vicepresidente de la Cámara Dominicana de Turismo.\nEntre sus principales publicaciones se citan: 15 años de jurisprudencia dominicana 1988- 2002; Manual de Derecho Comercial Dominicano 2, Tomos I y II."
    },
    {
      "id": 34,
      "nombre": "Juan De La Cruz Güilamo",
      "honorifico": "Mgdo",
      "ocupacion": "Docente",
      "foto": "juan-de-la-cruz-guilamo-500x500.jpg",
      "sobreMi": "Doctor en Derecho de la Universidad Central del Este, San Pedro de Macorís; ha sido procurador Fiscal del Distrito Judicial de la Romana; Juez de Paz Especial de Transito en el Municipio de La Romana y actualmente es Juez de la Ejecución de la Pena del Departamento Judicial de San pedro De Macorís.\nHa realizado diversos cursos y talleres entre ellos son: curso sobre identificación de Drogas y sustancias controladas; Taller de Difusión y análisis de las Leyes 55-93, Diplomado sobre el Nuevo código procesal Penal y ha tomado seminarios Sobre el Juez de la Ejecución de las penas, así como la Implementación del código Procesal Penal I y II."
    },
    {
      "id": 35,
      "nombre": "Julio Ballesteros",
      "ocupacion": "Docente",
      "foto": "julio-ballesteros-500x500.jpg"
    },
    {
      "id": 36,
      "nombre": "Julio José Rojas",
      "ocupacion": "Docente",
      "foto": "julio-jose-rojas-500x500.jpg",
      "sobreMi": "Licenciado en Derecho, egresado de la Universidad Autónoma de Santo Domingo (UASD). Es Secretario General del Tribunal Constitucional. Maestría de Estudios Legales Internacionales en American University, Washington. Maestría en Derecho de la Administración del Estado en la Universidad de Salamanca.\nEs docente de las cátedras de Derecho Internacional Público y Constitucionalización del Derecho Internacional en la Universidad Iberoamericana (UNIBE) y de Derecho Internacional y Competencia Judicial Internacional en la Pontificia Universidad Católica Madre y Maestra (PUCMM)."
    },
    {
      "id": 37,
      "nombre": "Katty Alexandra Soler Báez",
      "honorifico": "Mgda",
      "ocupacion": "Docente",
      "foto": "katty-soler-500x500.jpg",
      "sobreMi": "Es Licenciada en Derecho de la Universidad Iberoamericana, (2000). Ha realizado Maestría Derecho Procesal Civil, Pontificia Universidad Católica Madre y Maestra. Actualmente funge como Jueza de Corte de la Cámara Civil de la Corte de Apelación del Distrito Nacional."
    },
    {
      "id": 38,
      "nombre": "Laura Pascual Matellán",
      "ocupacion": "Docente",
      "foto": "laura-pascual-matellan-500x500.jpg",
      "sobreMi": "Licenciada en Derecho y Doctora en Derecho Penal por la Universidad de Salamanca. Su línea investigadora se centra fundamentalmente en las teorías de la pena, la historia del Derecho penal y penitenciario, y las escuelas penales, temáticas sobre las que ha escrito varios artículos en revistas científicas y varias monografías. Sus últimas investigaciones se centran en la disuasión concentrada, los delitos de trata con fines de explotación laboral y la dimensión exterior de la política de inmigración de la Unión Europea.\nHa realizado una estancia de investigación en la Universidad de Pisa (Italia) y ha participado en numerosos seminarios y congresos nacionales e internacionales. Su experiencia docente se ha desarrollado en la Universidad de Salamanca, en la Universidad de Pisa y en la Escuela Nacional de la Judicatura de República Dominicana. Completó su formación con la realización del Máster en Estudios Avanzados en Filosofía, del Máster en Formación del Profesorado, y del Máster en Intervención Criminológica y Victimológica."
    },
    {
      "id": 39,
      "nombre": "Luis Adriano Taveras",
      "honorifico": "Mgdo",
      "ocupacion": "Docente",
      "foto": "luis-adriano-tavera-500x500.jpg",
      "sobreMi": "Licenciado en Derecho egresado de la Universidad Católica Nordestana (UCNE). Especialista en Derecho Procesal Civil Por la Universidad Autónoma de santo Domingo, Especialista en Redacción Expositiva y Argumentativa de las Decisiones Judiciales de la Escuela Nacional de la Judicatura.\nPosee una Maestría en Derecho Inmobiliario de la Pontificia Universidad Católica Madre y Maestra. Egresado del Programa de Formación de Aspirantes a Juez de Paz (Grupo 1-2009). Posee formación en Argumentación Jurídica (2011) y Control de Logicidad (2011) de la Escuela Nacional de la Judicatura, entre otros. Es docente de la Escuela Nacional de la Judicatura en el área Funcional. Profesor de Derecho Inmobiliario en la Pontificia Universidad Católica Madre y Maestra y docente en Teoría General del Derecho de la Pontificia Universidad Católica Madre y Maestra Santiago para la Maestría en Ciencias Penales. Actualmente Juez del Tribunal de Tierras de Jurisdicción Original del Distrito Judicial de María Trinidad Sánchez."
    },
    {
      "id": 40,
      "nombre": "Luis Rafael Diloné Tejada",
      "honorifico": "Mgdo",
      "ocupacion": "Docente",
      "foto": "luis-dilone-500x500.jpg",
      "sobreMi": "Doctor en Derecho por la Universidad Mundial Dominicana (1991). Posee una Maestría en Ciencias Penales por la Pontificia Universidad Católica Madre y Maestra (2011). Actualmente se desempeña como Juez presidente del Tribunal Colegiado de Primera Instancia de la provincia Espaillat. Maestría en Redacción Expositiva y Argumentación de las Decisiones Judiciales (Jaen Espana). Especialidad en Redacción Expositiva y Argumentativa de las decisiones judiciales (ENJ)"
    },
    {
      "id": 41,
      "nombre": "Luis Fernández Budajir",
      "honorifico": "Mgdo",
      "ocupacion": "Docente",
      "foto": "luis-fernandez-budajir-500x500.jpg",
      "sobreMi": "Doctor de Filosofía - PhD Disciplina académica Criminal Justice/Law Enforcement Administration, por la Universidad de Salamanca (2018). Máster en Criminología, Política Criminal y de Seguridad por la Universidad de Barcelona (2012). Máster Disciplina académica Derecho Penal y Ciencias Penales por la Universitat Pompeu Fabra (2011).\nActualmente se desempeña como Senior Associate Attorney en la firma Rizek Abogados, SRL."
    },
    {
      "id": 42,
      "nombre": "Luisa Nuño",
      "ocupacion": "Docente",
      "foto": "luisa-nuño-500x500.jpg"
    },
    {
      "id": 43,
      "nombre": "Marcia Soledad Ángeles Suárez",
      "ocupacion": "Docente",
      "foto": "marcia-soledad-angeles-suarez-500x500.jpg",
      "sobreMi": "Es Coordinadora de la Defensa Pública del Departamento Judicial de La Vega y del Área Penal de la ENJ. Licenciada en Derecho egresada de Universidad Católica del Cibao (UCATECI).\nRealizó Maestría en Derecho Procesal Penal en la PUCMMA en el año 2010; Post grado en Justicia Constitucional y Garantías Jurisdiccionales de la Universidad de Castilla La Mancha-España, año 2012."
    },
    {
      "id": 44,
      "nombre": "Maria Trebolle",
      "ocupacion": "Docente",
      "foto": "maria-trebolle-500x500.jpg"
    },
    {
      "id": 45,
      "nombre": "Mario Leslie Soto",
      "ocupacion": "Docente",
      "foto": "mario-leslie-soto-500x500.jpg",
      "sobreMi": "Abogado experto en Derecho Público: Derecho Administrativo y Regulación. LL.M., 2018, University of Pennsylvania Law School, Philadelphia, PA, USA Wharton Business and Law Certificate, 2018, The Wharton School, Philadelphia, PA, USA. Máster in Science (M.Sc.), 2016, in Administrative Law & Public Administration, Instituto Global de Altos Estudios en Ciencias Sociales (IGlobal) & Universidad de Salamanca (USAL), Santo Domingo, República Dominicana & Salamanca, Spain. Honors: Magna Cum Laude & Valedictorian. Bachelor of Law (LL.B.), 2014, Universidad Iberoamericana Escuela de Leyes, Santo Domingo, República Dominicana. Honors: Summa Cum Laude. LL.M., 2018, University of Pennsylvania Law School, Filadelfia, PA, E.E.U.U. Wharton Business and Law Certificate, 2018, The Wharton School, Filadelfia, PA, E.E.U.U. Máster (M.Sc.), 2016, en Derecho de la Administración del Estado, Instituto Global de Altos Estudios en Ciencias Sociales (IGlobal) & Universidad de Salamanca (USAL) Universidad Iberoamericana, 2014, Facultad de Ciencias Jurídicas y Políticas, Santo Domingo, República Dominicana. Honores: Summa Cum Laude.\nActualmente se desempeña como Encargado del Departamento Legal de la Superintendencia de Bancos de la República Dominicana, 2020 – actualidad."
    },
    {
      "id": 46,
      "nombre": "Mario Nelson Mariot",
      "ocupacion": "Docente",
      "foto": "mario-nelson-mariot-500x500.jpg",
      "sobreMi": "Doctor en Derecho, egresado de la Universidad Nacional de Colombia (2017). Tiene un L.L.M. (Master of Laws) de Harvard Law School (2007). Obtuvo el título de Abogado en la Universidad Nacional de Colombia (2003). Es profesor asistente de la Escuela de Derecho de la Universidad de Virginia (EE. UU.), en donde dirige la Clínica Internacional de Derechos Humanos, el Programa de Derechos Humanos, y el Centro de Derecho Internacional y Comparado."
    },
    {
      "id": 47,
      "nombre": "Martha Díaz Villafaña",
      "honorifico": "Mgda",
      "ocupacion": "Docente",
      "foto": "martha-diaz-500x500.jpg",
      "sobreMi": "Se desempeña como juez presidente de Corte/Coordinador(a) Adjunto de la Cámara Civil de la Corte Apelación de Sa Francisco De Macorís. Es Licenciada en Derecho, egresada Summa Cum Laude la Universidad Nordestana (UNNE), 1990. Posee una Especialización en Justicia Constitucional en la Universidad Castilla-La Mancha, España, 2010; un Master Oficial Igualdad de Género en las Ciencias Sociales en la Universidad Complutense, Madrid, 2009; una Especialidad en Argumentación Jurídica en la Universidad de Alicante, 2007; una Maestría en Enseñanza Superior en la Universidad Autónoma de Santo Domingo, 2003; un Postgrado en Procedimiento Civil en la Pontificia Universidad Católica Madre y Maestra, 1999. Es Docente de la Universidad Católica Nordestana.\nEn la actualidad es docente de la Escuela Nacional de la Judicatura en sus programas de Formación de Aspirantes y Formación Continua."
    },
    {
      "id": 48,
      "nombre": "Marvin Carvajal",
      "ocupacion": "Docente",
      "foto": "marvin-carvajal-500x500.jpg"
    },
    {
      "id": 49,
      "nombre": "Matías Villalón",
      "ocupacion": "Docente",
      "foto": "matias-villalon-500x500.jpg",
      "sobreMi": "Licenciado en Ciencias Jurídicas y Sociales. Se postitula en “Estudios de la argumentación”, programa impartido por el Centro de Estudios de la Argumentación, en Facultad de Humanidades de la Universidad Diego Portales.\nPostgrado en Argumentación jurídica, impartido por el Departamento de Filosofía del Derecho de la Universidad de Alicante, España. Cursar Magíster en Derecho (n° 1 del ranking de alumnos del Magíster), con mención en Derecho Penal, impartido por la Facultad de Derecho de la Universidad Diego Portales. Profesor titular del curso: “Argumentación y jurisprudencia, el derecho del caso”, junto a José Julio León, profesor titular del curso: “Argumentación Jurídica”, profesor titular del curso: “Análisis jurídico”. Introducción al derecho I y II; docente y profesor asociado del Centro de Estudios de la Argumentación (Ex Sociedad de Debate), profesor titular del curso “Expresión oral y Retórica” en la Escuela de Derecho de la Universidad Academia de Humanismo Cristiano; profesor titular del curso a distancia: “Teoría General del Derecho” y “Argumentación jurídica” en la Escuela Nacional de la Judicatura, profesor del círculo de debate de la Escuela Militar.\nPublicaciones: Rescatando al régimen disciplinario militar. En “Hacia una Reforma de la Justicia Militar”, Cuaderno de análisis jurídico. Universidad Diego Portales, Editor, Jorge Mera Figueroa, Fundación Ford, Santiago, 2002. Desde el año 2007 ejerce libremente la profesión de abogado como profesional independiente"
    },
    {
      "id": 50,
      "nombre": "Max Escalante",
      "ocupacion": "Docente",
      "foto": "max-escalante-500x500.jpg"
    },
    {
      "id": 51,
      "nombre": "Mayra Zuleica Cabral Brea",
      "ocupacion": "Docente",
      "foto": "mayra-cabral-500x500.jpg",
      "sobreMi": "Licenciada en Derecho, egresada Summa Cum Laude de la Universidad Autónoma de Santo Domingo (UASD), con maestría en Derecho Constitucional de la Universidad Iberoamericana (UNIBE); Máster Universitario en Protección Internacional de los Derechos Humanos de la Universidad de Alcalá de Henares, España, postgrado en Entornos Virtuales del Aprendizaje por Virtual Educa, posee un Doctorado en América Latina y la Unión Europea en el contexto Internacional por la Universidad de Alcalá de Henares, España.\nLaboró como abogada ayudante en la Corte Interamericana de Derechos Humanos bajo el programa de pasantías y visitas profesionales, y como encargada de incidencia del programa Ciudadanía Activa de las Mujeres en la Colectiva Mujer y Salud. Actualmente, es coordinadora de la Cátedra UASD-UNESCO: Cultura de Paz, Derechos Humanos y Democracia en la Universidad Autónoma de Santo Domingo y se desempeña como Letrada de la Presidencia del Tribunal Constitucional dominicano."
    },
    {
      "id": 52,
      "nombre": "Michel Camacho Gómez",
      "ocupacion": "Docente",
      "foto": "michel-camacho-gomez-500x500.jpg"
    },
    {
      "id": 53,
      "nombre": "Miguelina Pérez Evertz",
      "ocupacion": "Docente",
      "foto": "miguelina-perez-evertz-500x500.jpg",
      "sobreMi": "Posee licenciaturas en Trabajo Social (PUCMM, 1971), y en Psicología mención Clínica (UTE, 2008), así como postgrado en Administración de Recursos Humanos (INTEC, 1995). Cuenta con maestrías en Terapia Familiar (UASD, 2003), y en Gerencia y Productividad (APEC, 2001).\nHa participado en diplomados sobre Resolución Alternativa de Conflictos (MAP, 2011), Pedagogía Universitaria (PUCMM, 2011), así como en diversos cursos dentro de los cuales se destacan: Formación Metodológica Inicial para Instructores (INFOTEP, 1996); Técnicas Actualizadas en Adiestramiento (INTEC, 1992), y Formación de Auditores Internos de Calidad (CEGESTI, 1999)."
    },
    {
      "id": 54,
      "nombre": "Miguelina Ureña",
      "honorifico": "Mgda",
      "ocupacion": "Docente",
      "foto": "miguelina-ureña-500x500.jpg",
      "sobreMi": "Es Licenciada en Derecho egresada de UTESA. Posee Maestría en Derecho Constitucional, concentración jurisdicción constitucional de la Pucmm y Universite de Savoie, Francia; Maestría en Derecho societario y comercial de la PUCMM. Actualmente se desempeña como Jueza Miembro de la Cámara Civil y Comercial de la Corte de Apelación del Distrito Nacional."
    },
    {
      "id": 55,
      "nombre": "Miriam Alt. Encarnación Mejía",
      "ocupacion": "Docente",
      "foto": "miriam-encarnacion-500x500.jpg",
      "sobreMi": "Es coordinadora del Centro Artístico para Personas con Discapacidad, productora y conductora del programa radial Compartiendo en la Diversidad, coordinadora y docente del Diplomado de Lengua de Señas en la Escuela de Sordos y la Formación de Intérpretes y Guías Intérpretes de Lengua de Señas. Egresada de la Universidad Militar del Caribe de la Licenciatura en Educación Especial (Magna Cum Laude) y también del Mout Aloysus Collage, Cresson, PA. USA, como A.A. Intérprete de Lengua de Señas (Magna Cum Laude).\nMaestría en orientación e intervención psico-pedagógica en atención a la diversidad de la Universidad Autónoma de Santo Domingo y GuíaIntérprete de Personas Sordociegas, Bogotá, Colombia."
    },
    {
      "id": 56,
      "nombre": "Mirta Duarte",
      "honorifico": "Mgda",
      "ocupacion": "Docente",
      "foto": "mirta-duarte-500x500.jpg",
      "sobreMi": "Jueza de la Corte de Apelación de Niños, Niñas y Adolescentes de San Francisco de Macorís. Egresada de la Universidad Nordestana, con Diplomado en Administración de Justicia, Postgrado en Derecho de Familia en la UASD. Es además docente del Programa de Formación de Aspirantes a Juez de Paz de la ENJ."
    },
    {
      "id": 57,
      "nombre": "Nelson Camilo Sánchez",
      "ocupacion": "Docente",
      "foto": "nelson-camilo-sanchez-500x500.jpg"
    },
    {
      "id": 58,
      "nombre": "Pablo Meix",
      "ocupacion": "Docente",
      "foto": "pablo-meix-500x500.jpg",
      "sobreMi": "Licenciado en Derecho. Es Doctor en Derecho por la Universidad de Cantabria (España) y trabaja como Ayudante en el Área de Derecho Administrativo de la Universidad de Castilla-La Mancha (Facultad de Albacete).\nSe ha desarrollado en distintas asignaturas relacionadas con el Derecho Administrativo y el Derecho Público en general de diversos planes de estudios de dos Universidades. Ha impartido docencia además en el Máster Universitario de formación del profesorado (Universidad de Castilla-La Mancha, entre 2009 y 2012) y en distintos cursos de formación de funcionarios y policías locales. Ha participado en dos proyectos de innovación docente."
    },
    {
      "id": 59,
      "nombre": "Rafael Frett",
      "honorifico": "Mgdo",
      "ocupacion": "Docente",
      "foto": "rafael-frett-500x500.jpg",
      "sobreMi": "Juez de la Corte de Trabajo del Departamento Judicial de San Francisco de Macorís. Realizó un Magíster en Derecho Constitucional por la Pontificia Universidad Católica Madre y Maestra. Máster en Derechos y Libertades Fundamentales y sus Garantías por la Universidad de Castilla La Mancha. Post- Grado en Derecho de Autor y Derechos Conexos de la Universidad de los Andes.\nHa sido consultor del Programa Internacional para la Erradicación del Trabajo Infantil de la Organización Internacional del Trabajo y coautor de la Guía Práctica para la Aplicación de las Normas Relativas a Trabajo Infantil, sus Peores Formas y la Protección del Adolescente Trabajador."
    },
    {
      "id": 60,
      "nombre": "Rawil Guzmán",
      "ocupacion": "Docente",
      "foto": "rawil-guzman-500x500.jpg",
      "sobreMi": "Licenciado en Derecho, summa cum laude, de la Pontificia Universidad Católica Madre y Maestra, institución en la cual es profesor de Derecho y Oratoria. Siendo becario Fulbright, realizó una maestría en Derecho, enfocada en Derecho Constitucional y Administrativo, en la Universidad de Georgetown en Washington D.C.\nEs egresado del Programa para el Fortalecimiento de la Función Pública en América Latina de la Fundación Botín."
    },
    {
      "id": 61,
      "nombre": "Richard Aquino Natera",
      "honorifico": "Mgdo",
      "ocupacion": "Docente",
      "foto": "richard-aquino-natera-500x500.jpg",
      "sobreMi": "Juez de Ejecución de la Pena de Santo Domingo. Licenciado en Derecho egresado de la universidad Autónoma de Santo Domingo (UASD).\nPosee una Maestría en Derecho Judicial (MDJ 2-2015). Maestría de Administración Penitenciaria en universidad Autónoma de Santo Domingo (UASD). Especialización de la Función Judicial y la Garantía de los Derechos Fundamentales de Personas Privadas de Libertad en Colombia. Especialización en Procedimiento y extinción de Domino en Guatemala. Diplomado en lavado de activos organizado por la OEA."
    },
    {
      "id": 62,
      "nombre": "Rigoberto Lorenzo Ybert",
      "ocupacion": "Docente",
      "foto": "rigoberto-lorenzo-500x500.jpg",
      "sobreMi": "Licenciado en Derecho, egresado de la Universidad Autónoma de Santo Domingo, (UASD). Ha participado en el Diplomado en Legislación de Tierras, Fundación de jóvenes para el progreso. Inc. (FUNJEPRO) y diplomados en Archivística General I y Archivística General II (Escuela Nacional de la Judicatura).\nTambién ha participado en los cursos-talleres de Implementación del Código Procesal Penal, Derecho de Autor y Propiedad Intelectual y Derecho Constitucional. Actualmente cursa una maestría en Derecho Inmobiliario y Registral en la Universidad Iberoamericana (UNIBE). Actualmente se desempeña como Registrador de Títulos del Registro Inmobiliario."
    },
    {
      "id": 63,
      "nombre": "Rosa Evelyn Fermín",
      "honorifico": "Mgda",
      "ocupacion": "Docente",
      "foto": "rosa-evelyn-fermin-500x500.jpg",
      "sobreMi": "Egresada del Programa de Formación de Aspirantes a Juez de Paz, de la Escuela Nacional de la Judicatura, en el año 2011. Magíster en Derecho y Procedimiento Civil de la Universidad Autónoma de Santo Domingo (UASD) y en Derecho Constitucional de la Universidad de Castilla La Mancha (UCLM), España. Especialista en argumentación Jurídica, de la Universidad de Castilla La Mancha (UCLM) y Especialista en Derechos Humanos de la Universidad de Salamanca, entre otros cursos.\nActualmente docente de la Universidad Pedro Henríquez Ureña (UNPHU) y de la materia Redacción de Sentencias, que se imparte en la Escuela Nacional de la Judicatura. Actualmente es Jueza de Primera Instancia de la tercera sala Cámara Civil del Distrito Nacional."
    },
    {
      "id": 64,
      "nombre": "Rosanna Vásquez Febrillet",
      "honorifico": "Mgda",
      "ocupacion": "Docente",
      "foto": "rosanna-vasquez-febrillet-500x500.jpg",
      "sobreMi": "Licenciada Magna Cum Laude en Derecho, de la Universidad Nacional Pedro Henríquez; especialista en el Derecho Penal, Posgrado Universidad Autónoma de Santo Domingo; egresada con calificación sobresaliente del Programa de Aspirantes a Juez de Paz de la Escuela Nacional de la Judicatura; con formación continua, desde el 2006 a la fecha; máster en Derecho Constitucional; con 25 años en el Poder Judicial, con vasta experiencia en el juzgamiento de procesos por lavado de activos; actual Juez del Tribunal Superior de Tierra."
    },
    {
      "id": 65,
      "nombre": "Sarah Veras",
      "honorifico": "Mgda",
      "ocupacion": "Docente",
      "foto": "sarah-veras-500x500.jpg",
      "sobreMi": "Jueza/Coordinador(a) Adjunto de la 2da. Sala de la Cámara Penal de la Corte de Apelación de Santo Domingo. Doctora en Derecho, egresada de la Universidad Central del Este (UCE). Ha sido docente de las materias de Derecho Penal Especial I y II, Derecho Procesal Penal I y II y Práctica Forense II de la Universidad Federico Henríquez y Carvajal (UFHEC), extensión La Romana."
    },
    {
      "id": 67,
      "nombre": "Ulda Arline Disla Méndez",
      "ocupacion": "Docente",
      "foto": "ulda-arline-disla-mendez-500x500.jpg",
      "sobreMi": "Es licenciada en Mercadotecnia por la Universidad Iberoamericana (UNIBE, 1993), Posee un Máster en Administración de Recursos Humanos por el Instituto Tecnológico de Santo Domingo (2000). Es certificada en Coaching, PNL, Neuro-Semántica por el Instituto Nacional de Formación Técnico Profesional (2015), es miembro activo de la Academia de Neurociencia y Educación. Posee más de 20 años de experiencia en empresas de actividades industriales, comerciales y de servicios, trabajando directamente en las áreas de Gestión Humana y Administración.\nHa capacitado a más de 8,000 personas. Se desempeña como Coach, Consultora y Asesora de Empresas, y Facilitadora de la Formación Profesional y Desarrollo Personal (desde el 2005 a la actualidad)."
    },
    {
      "id": 68,
      "nombre": "Ulises Manuel Medrano Segura",
      "ocupacion": "Docente",
      "foto": "ulises-medrano-500x500.jpg",
      "sobreMi": "Es Ingeniero Industrial, egresado de la Universidad Autónoma de Santo Domingo (UASD), 2007. Maestría en Diseño, Gestión y Dirección de Proyectos, Universidad de León, España, 2011.\nHa realizado las capacitaciones: Diplomado en Gestión Contemporánea, Borbón TH-Hospira; Diplomado en Administración Financiera, FUNJEPRO; Diplomado en Archivística General I, Escuela Nacional de la Judicatura; Diplomado en Gestión de Archivos 2, Escuela Nacional de la Judicatura; Técnicas de Supervisión y Gerencia, Accomplish Training & Development. Se desempeña como Gerente del Archivo Central de la Jurisdicción Inmobiliaria."
    },
    {
      "id": 69,
      "nombre": "Víctor Orozco Solano",
      "ocupacion": "Docente",
      "foto": "victor-orozco-solano-500x500.jpg",
      "sobreMi": "Doctor en Derecho Constitucional por la Universidad de Castilla-La Mancha. Tesis aprobada con la máxima distinción sobresaliente-cum laude. Máster en Justicia Constitucional por la Universidad de Castilla-La Mancha y la Universidad de Costa Rica. Máster en Derecho Constitucional por la Universidad Estatal a Distancia (UNED). Especialista en Justicia Constitucional por la Universidad Carlos III de Madrid, en Investigación y Prueba en el Proceso Penal y en Justicia Constitucional por la Universidad de Castilla-La Mancha, así como en Derechos Humanos, por la Universidad de Heidelberg –Heidelberg Center para América Latina- y la Universidad para la Paz."
    },
    {
      "id": 70,
      "nombre": "Vladimir Marx Rosario",
      "honorifico": "Mgdo",
      "ocupacion": "Docente",
      "foto": "vladimir-marx-rosario-500x500.jpg",
      "sobreMi": "Licenciado en Derecho egresado de la Universidad Autónoma de Santo Domingo (UASD) (2005). Posee Maestría en Derecho Procesal Penal en la UASD (2012), Diplomado en Legislación de Tierras de FUNJEPRO (2006). Egresado del Programa de Formación de Aspirantes a Juez de Paz de la Escuela Nacional de la Judicatura. Actualmente se desempeña como Juez de la 9na. Sala de la Cámara Penal del Juzgado de Primera Instancia del Distrito Nacional."
    },
    {
      "id": 71,
      "nombre": "Yoaldo Hernández Perera",
      "honorifico": "Mgdo",
      "ocupacion": "Docente",
      "foto": "yoaldo-hernandez-500x500.jpg",
      "sobreMi": "Licenciado en Derecho egresado de la Pontificia Universidad Católica Madre y Maestra (PUCMM); actualmente desempeña la función de Juez de la Tercera Sala del Tribunal Superior de Tierras del Departamento Central. Ha realizado postgrado en Teoría General del Delito, Universidad de Salamanca, España; Especialidad en Derecho Penal, Universidad Autónoma de Santo Domingo (UASD); Diplomado sobre el Recurso de Amparo, ENJ; Maestría en Procedimiento Civil, Pontificia Universidad Católica Madre y Maestra (PUCMM).\nAdemás, es autor del libro Demandas basadas en el uso abusivo de las vías de derecho."
    },
    {
      "id": 72,
      "nombre": "Yokaurys Morales",
      "honorifico": "Mgda",
      "ocupacion": "Docente",
      "foto": "yokaurys-morales-500x500.jpg",
      "sobreMi": "Jueza de la 3era sala de la Corte de Apelación de la Cámara Civil y Comercial del Distrito Nacional. Egresada del Programa de Formación de Aspirantes a Juez de Paz (índice más alto). Licenciada en Derecho Cum Laude, egresada de la Universidad Autónoma de Santo Domingo (UASD). Maestría en Derecho Constitucional de la Universidad Castilla la Mancha y la Pontificia Universidad Católica Madre y Maestra (PUCMM), y además Postgrado en Derecho Civil de la Universidad Autónoma de Santo Domingo. Especialización en Argumentación Jurídica en la Universidad de Alicante, mención notable."
    },
    {
      "id": 73,
      "nombre": "Isis de la Rosa",
      "ocupacion": "Docente",
      "foto": "isis-de-la-rosa-500x500.jpg",
      "sobreMi": "Lic. Isis de la Rosa: Ingeniera Industrial egresada de la PUCMM, especialista en Dirección de Proyectos, con más de 15 años de experiencia en consultoría de implementación de PMOs, outsourcing de dirección de proyectos, coaching a gerentes de proyectos, y diagnóstico y rediseño de procesos. Se ha desempeñado como Gerente de Proyectos en un grupo de empresas de servicios, manufactura y logística, y como Consultor Senior de Deloitte, una de las firmas de consultoría más grandes a nivel mundial. Su experiencia incluye administración de proyectos en diversas industrias como comercialización, manufactura, logística, banca, ONGs, entre otras. Ha sido conferencista en Congresos Internacionales en Centroamérica, así como instructora reconocida por nuestros cursos y metodología para México, Costa Rica, Panamá, Trinidad & Tobago y otros países.\nFue seleccionada por Rita Mulcahy y RMC como traductora al español del libro “Curso Intensivo de Dirección de Proyectos”, así como crítico de revisión de calidad del libro más vendido a nivel mundial de “Preparación a la Certificación PMP” y todos sus materiales didácticos relacionados."
    },
    {
      "id": 74,
      "nombre": "Ligia Pardilla",
      "ocupacion": "Docente",
      "foto": "ligia-pardilla-500x500.jpg"
    },
    {
      "id": 75,
      "nombre": "Paola Cuevas",
      "ocupacion": "Docente",
      "foto": "paola-cuevas-500x500.jpg",
      "sobreMi": "Licenciada en Derecho, con 6 años de experiencia en Contratación Pública desempeñando funciones de analista legal, coordinadora de compras territoriales y encargada del departamento legal en la Dirección General de Contrataciones Públicas, Órgano Rector de la Contratación Pública de la Administración Central del Estado en la República Dominicana. En la actualidad es Gerente legal de la Administración General Jurisdicción Inmobiliaria."
    },
    {
      "id": 76,
      "nombre": "José Carlos Laguna",
      "ocupacion": "Docente",
      "foto": "jose-carlos-laguna-500x500.jpg",
      "sobreMi": "Catedrático de Derecho Administrativo de la Universidad de Valladolid (España). Ha realizado estancias de investigación en las Universidades de: Munich, Marburgo, Trier, LSE, Harvard, Georgetown y Oxford. Es autor de diversas obras, tales como Derecho Administrativo Económico en el 2020; Telecomunicaciones: regulación y mercado en el 2010; Servicios de Interés Económico General en el 2009; La autorización administrativa en el 2006, y otros más. Por igual, ha participado como coordinador de los siguientes libros: Derecho Administrativo e integración europea. Estudios en Homenaje al Prof. José Luis Martínez López-Muñiz (coord. con I. Sanz Rubiales e I. de los Mozos) en el 2017; Contratación Pública I y II (coord. con J.L. Martínez López-Muñiz), en 1996 y 1997 respectivamente.\nEs Miembro de Consejos Asesores de revistas especializadas; ha sido consultor de entidades públicas y privadas. Entre ellas: Ministerio de AAEE (España); Indecopi (Perú); Procompetencia (Venezuela); Indotel (República Dominicana); Junta de Castilla y León y Miembro del Tribunal de Arbitraje de la Contratación Pública (Tacop)."
    },
    {
      "id": 77,
      "nombre": "Rafael Dickson Morales",
      "ocupacion": "Docente",
      "foto": "rafael-dickson-morales-500x500.jpg",
      "sobreMi": "Doctor en Derecho Administrativo Iberoamericano, Universidad Da Coruña, España. Licenciado en Derecho, PUCMM, (magna cum laude). Posgrado en Procedimiento Civil, PUCMM; Posgrado en Nuevas Tecnologías, Universidad Complutense de Madrid, España. Maestría en Derecho Internacional de los Negocios, Universidades de PUCMM, Savoie y Universidad Pierre Mendes, Francia; Diplomado de Derecho Administrativo Sancionador, Universidad de Valladolid, España.\nActualmente se desempeña como Profesor de Derecho de Derecho Administrativo y Derecho de la Competencia. Escuela de Derecho de la Universidad Iberoamericana (UNIBE); Profesor de Derecho de Contratos Públicos. Escuela de Derecho de la Pontificia Universidad Católica Madre y Maestra (PUCMM); Docente de Derecho Administrativo en la Escuela Nacional de la Judicatura; Profesor de Derecho de Derecho Administrativo. Maestría de Derecho Constitucional de la Universidad Autónoma de Santo Domingo (UASD)."
    },
    {
      "id": 78,
      "nombre": "Jaime Rodríguez–Arana",
      "ocupacion": "Docente",
      "foto": "jaime-rodriguez-arana-500x500.jpg",
      "sobreMi": "Catedrático de Derecho Administrativo de la Universidad de A Coruña donde dirige el grupo de investigación de Derecho Público Global y el doctorado internacional de Derecho Administrativo Iberoamericano. Preside el Foro Iberoamericano de Derecho Administrativo y la Spin Off Ius Publicum Innovatio. Dirige la Universidad Internacional Menéndez Pelayo y es miembro de la Academia Internacional de Derecho Comparado de la Haya."
    },
    {
      "id": 79,
      "nombre": "Emmanuel E. Tejada L.",
      "ocupacion": "Docente",
      "foto": "emmanuel-e-tejada-l-500x500.jpg"
    },
    {
      "id": 80,
      "nombre": "Miguel Ángel Salazar Carmona",
      "ocupacion": "Docente",
      "foto": "miguel-angel-salazar-carmona-500x500.jpg"
    },
    {
      "id": 81,
      "nombre": "Víctor Luna",
      "ocupacion": "Docente",
      "foto": "victor-luna-500x500.jpg",
      "sobreMi": "Se desempeña actualmente como Supervisor de Digitalización de la Secretaría General de la Suprema Corte de Justicia. Su formación profesional comprende: Licenciatura en Derecho (Universidad Dominicana O&M - 2017), Taller Conservación Documental (Papyrus Technologic – 2020)."
    },
    {
      "id": 82,
      "nombre": "Jhordam Martínez",
      "ocupacion": "Docente",
      "foto": "jhordam-martinez-500x500.jpg",
      "sobreMi": "Se desempeña como Gerente de Control Operativo de la Secretaria General del Consejo del Poder Judicial. En el 2006, fungió como soporte técnico de la plataforma virtual de la ENJ para los estudiantes de Formación Continua y se desempeñó, hasta el 2019, como Gerente de Formación y Capacitación de la ENJ. En el 2008 finaliza sus estudios en Derecho graduándose Magna Cum Laude en la Universidad Autónoma de Santo Domingo (UASD), con el índice más alto de su promoción.\nHa realizado seminarios de El Recurso de Apelación, el Derecho del Mar, entre otros. En el 2008, finalizó el Curso de Tutoría Virtual impartido por la OEA. En el 2011, completó el posgrado Especialista en Entornos Virtuales de Aprendizaje, impartido por Virtual Educa."
    },
    {
      "id": 83,
      "nombre": "Ibeth Altagracia Guzmán Crespo",
      "ocupacion": "Docente",
      "foto": "ibeth-altagracia-guzman-crespo-500x500.jpg",
      "sobreMi": "Licenciada en Educación, Mención Filosofía y Letras, Universidad Autónoma de Santo Domingo, 2005. Posee una Maestría en Enseñanza del Español como Lengua Materna y como Lengua Extranjera, Universidad APEC y Alcalá de Henares, 2006."
    },
    {
      "id": 84,
      "nombre": "Kenya Scarlett Romero Severino",
      "honorifico": "Mgda",
      "ocupacion": "Docente",
      "foto": "kenya-scarlett-romero-severino-500x500.jpg",
      "sobreMi": "Jueza del Séptimo Juzgado de la Instrucción del Distrito Nacional. Licenciada en Derecho de la Universidad Autónoma de Santo Domingo. Es Miembro de la Junta Directiva de la Asociación Iberoamericana de Justicia Terapéutica. Posee Postítulo en Justicia Restaurativa. Es integrante de la Comisión para la Igualdad de Género, representante de las/os Jueces/zas de los Juzgados de Primera Instancia. Investigadora de la Facultad Latinoamericana de Ciencias Sociales FLACSO. Posee Especialidad en Derechos de la Infancia, Universidad de Geneve."
    }

    },
    {
      "id": 85,
      "nombre": "Mery Laine Collado Tactuk",
      "honorifico": "Mgda",
      "ocupacion": "Docente",
      "foto": "Mery-Laine-Collado-Tactuk-500x500.jpg",
      "sobreMi": "Jueza de Primera Sala del Tribunal Superior Administrativo. Licenciada en Derecho, egresada de la Universidad Nacional Pedro Henríquez Ureña (UNPHU). Maestría en Derecho Empresarial y Legislación Económica, PUCMM, 2002. Diploma en Derecho Laboral, UASD, 99-2000. Curso en Derechos Humanos, Instituto Interamericano de Derechos Humanos, 2000. Diplomado en Gestión de la Docencia Universitaria, INTEC, 2005. Actualmente funge como docente del curso Materias Especializadas de la Escuela Nacional de la Judicatura y es Jueza de Corte del Tribunal Superior Administrativo."
    },
    {
      "id": 86,
      "nombre": "Manuel Ramírez Suzaña",
      "honorifico": "Mgdo",
      "ocupacion": "Docente",
      "foto": "Manuel-Ramírez-Suzaña-500x500.PNG",
      "sobreMi": "Juez Coordinador y Juez presidente de la Cámara Civil, Comercial y de Trabajo de la Corte de Apelación del Departamento Judicial de San Juan de la Maguana. Es Doctor en Derecho, egresado de la Universidad Central del Este. Posee estudios de Tutoría Virtual en la Universidad Virtual de Cataluña y en la Organización de Estados Americanos y Maestría en Derecho Constitucional. Fue Decano de la Facultad de Ciencias Jurídicas y Económicas de la Universidad UFHEC hasta el 2018. Miembro de la Comisión para la Igualdad de Género del Poder Judicial. Coautor de los Libros: Constitucionalización del Proceso Civil, la Constitución comentada por los jueces del Poder Judicial y Derechos y garantías. Seis aproximaciones al estudio de la cuestión."

    },
    {
      "id": 89,
      "nombre": "Alix M. González De Paredes",
      "ocupacion": "Docente",
      "foto": "Alix-M.-González-De-Paredes-500x500.jpg",
      "sobreMi": "Es licenciada en psicología clínica de la Universidad Dominicana O&M (2013); Técnico Especialista en Diagnóstico y Terapia de Aprendizaje del Instituto de Servicios Psicosociales y Educativos (ISPE,2014); Técnico Especialista en Psicometría (ISPE,2011); Facilitadora Profesional del Instituto Nacional de Formación Técnico Profesional (INFOTEP,2012); Diplomado en Prevención de Drogas “Políticas Públicas y Seguridad Ciudadana” del Instituto Nacional de Formación y Capacitación "

    }

  ]
}
